…
# Get data from the table "Migration between the Länder..."
get_table("12711-0020")
#> <GENESIS data/tablefile?username=***&password=***&name=12711-0020&area=free&compress=false&startyear=1900&endyear=2100&language=en&format=ffcsv>
#> # A tibble: 3,213 × 20
#>    Statistik_Code Statistik_Label    Zeit_Code Zeit_Label Zeit  `1_Merkmal_Code`
#>             <dbl> <chr>              <chr>     <chr>      <chr> <chr>           
#>  1          12711 Wanderungsstatist… JAHR      Jahr       2000  DLAND           
#>  2          12711 Wanderungsstatist… JAHR      Jahr       2000  DLAND           
#>  3          12711 Wanderungsstatist… JAHR      Jahr       2000  DLAND           
#>  4          12711 Wanderungsstatist… JAHR      Jahr       2000  DLAND           
#>  5          12711 Wanderungsstatist… JAHR      Jahr       2000  DLAND           
#>  6          12711 Wanderungsstatist… JAHR      Jahr       2000  DLAND           
#>  7          12711 Wanderungsstatist… JAHR      Jahr       2000  DLAND           
#>  8          12711 Wanderungsstatist… JAHR      Jahr       2000  DLAND           
#>  9          12711 Wanderungsstatist… JAHR      Jahr       2000  DLAND           
#> 10          12711 Wanderungsstatist… JAHR      Jahr       2000  DLAND           
#> # … with 3,203 more rows, and 14 more variables: 1_Merkmal_Label <chr>,
#> #   1_Auspraegung_Code <chr>, 1_Auspraegung_Label <chr>, 2_Merkmal_Code <chr>,
#> #   2_Merkmal_Label <chr>, 2_Auspraegung_Code <chr>, 2_Auspraegung_Label <chr>,
#> #   3_Merkmal_Code <chr>, 3_Merkmal_Label <chr>, 3_Auspraegung_Code <chr>,
#> #   3_Auspraegung_Label <chr>, BEV013__Zuzuege__Anzahl <dbl>,
#> #   BEV014__Fortzuege__Anzahl <dbl>, BEV015__Wanderungssaldo__Anzahl <dbl>
…
